[gd_scene load_steps=9 format=2]

[ext_resource path="res://shaders/fire.shader" type="Shader" id=1]
[ext_resource path="res://assets/shaders/fire_mask.png" type="Texture" id=2]
[ext_resource path="res://assets/shaders/fire_noise_1.png" type="Texture" id=3]
[ext_resource path="res://assets/shaders/fire_noise_2.png" type="Texture" id=4]
[ext_resource path="res://scenes/general/Light.gd" type="Script" id=5]

[sub_resource type="ShaderMaterial" id=1]
shader = ExtResource( 1 )
shader_param/inner_color = Color( 0.960784, 0.866667, 0.117647, 1 )
shader_param/outer_color = Color( 0.956863, 0.560784, 0, 1 )
shader_param/fire_tex_1 = ExtResource( 3 )
shader_param/fire_tex_2 = ExtResource( 4 )
shader_param/fire_mask = ExtResource( 2 )

[sub_resource type="QuadMesh" id=2]

[sub_resource type="Animation" id=3]
resource_name = "light_twinkle"
length = 5.0
loop = true
tracks/0/type = "value"
tracks/0/path = NodePath("OmniLight:light_energy")
tracks/0/interp = 1
tracks/0/loop_wrap = true
tracks/0/imported = false
tracks/0/enabled = true
tracks/0/keys = {
"times": PoolRealArray( 0, 0.5, 0.7, 1, 1.2, 1.5, 1.9, 2.3, 2.6, 3, 3.3, 3.5, 3.7, 4, 4.2, 4.5, 4.7, 5 ),
"transitions": PoolRealArray( 1, 1, 1, 1, 1, 1, 1, 1, 1, 1, 1, 1, 1, 1, 1, 1, 1, 1 ),
"update": 0,
"values": [ 1.0, 0.7, 0.75, 0.9, 1.0, 0.7, 0.77, 0.88, 0.7, 0.76, 0.7, 0.8, 0.7, 1.0, 0.8, 0.75, 0.9, 1.0 ]
}

[node name="Fire" type="Spatial"]

[node name="Mesh" type="MeshInstance" parent="."]
transform = Transform( 1, 0, 0, 0, 1, 0, 0, 0, 1, 0, 0.45, 0 )
material_override = SubResource( 1 )
mesh = SubResource( 2 )
material/0 = null

[node name="OmniLight" type="OmniLight" parent="."]
transform = Transform( 1, 0, 0, 0, 1, 0, 0, 0, 1, 0, 0.546821, 0 )
light_color = Color( 1, 0.870588, 0.360784, 1 )
shadow_enabled = true
shadow_bias = 0.0
shadow_reverse_cull_face = true
omni_range = 15.0
omni_attenuation = 0.784584
script = ExtResource( 5 )

[node name="AnimationPlayer" type="AnimationPlayer" parent="."]
autoplay = "light_twinkle"
anims/light_twinkle = SubResource( 3 )
