[gd_scene load_steps=6 format=2]

[ext_resource path="res://gui/ItemObtainedNotification.gd" type="Script" id=1]
[ext_resource path="res://assets/items/trophy.png" type="Texture" id=2]
[ext_resource path="res://assets/fonts/Patrick_Hand/PatrickHand-Regular.ttf" type="DynamicFontData" id=3]

[sub_resource type="DynamicFont" id=1]
size = 48
outline_size = 2
outline_color = Color( 0.168627, 0.168627, 0.168627, 1 )
use_mipmaps = true
use_filter = true
font_data = ExtResource( 3 )

[sub_resource type="Animation" id=2]
resource_name = "show"
length = 2.5
tracks/0/type = "value"
tracks/0/path = NodePath(".:modulate")
tracks/0/interp = 2
tracks/0/loop_wrap = true
tracks/0/imported = false
tracks/0/enabled = true
tracks/0/keys = {
"times": PoolRealArray( 0, 0.5, 2, 2.5 ),
"transitions": PoolRealArray( 1, 1, 1, 1 ),
"update": 0,
"values": [ Color( 1, 1, 1, 0 ), Color( 1, 1, 1, 1 ), Color( 1, 1, 1, 1 ), Color( 1, 1, 1, 0 ) ]
}
tracks/1/type = "value"
tracks/1/path = NodePath(".:rect_position")
tracks/1/interp = 2
tracks/1/loop_wrap = true
tracks/1/imported = false
tracks/1/enabled = true
tracks/1/keys = {
"times": PoolRealArray( 0, 0.5, 2, 2.5 ),
"transitions": PoolRealArray( 1, 1, 1, 1 ),
"update": 0,
"values": [ Vector2( 753, 200 ), Vector2( 753, 100 ), Vector2( 753, 100 ), Vector2( 753, 50 ) ]
}

[node name="ItemObtainedNotification" type="VBoxContainer"]
modulate = Color( 1, 1, 1, 0 )
anchor_left = 0.5
anchor_right = 0.5
margin_left = -207.0
margin_top = 200.0
margin_right = 207.0
margin_bottom = 398.0
size_flags_horizontal = 0
size_flags_vertical = 0
script = ExtResource( 1 )

[node name="ItemIcon" type="TextureRect" parent="."]
margin_left = 143.0
margin_right = 271.0
margin_bottom = 128.0
size_flags_horizontal = 4
texture = ExtResource( 2 )

[node name="Label" type="Label" parent="."]
margin_top = 132.0
margin_right = 414.0
margin_bottom = 198.0
custom_fonts/font = SubResource( 1 )
text = "item obtained test label"
align = 1
valign = 1

[node name="AnimationPlayer" type="AnimationPlayer" parent="."]
anims/show = SubResource( 2 )
