[gd_scene load_steps=4 format=2]

[ext_resource path="res://characters/fulcrum/Fulcrum.gd" type="Script" id=1]
[ext_resource path="res://assets/characters/fulcrum/Fulcrum.tscn" type="PackedScene" id=2]

[sub_resource type="BoxShape" id=1]
extents = Vector3( 1.03479, 1, 1.3 )

[node name="Fulcrum" type="Spatial"]
script = ExtResource( 1 )

[node name="InteractArea" type="Area" parent="."]

[node name="CollisionShape" type="CollisionShape" parent="InteractArea"]
transform = Transform( 1, 0, 0, 0, 1, 0, 0, 0, 1, 0, 0.995451, 0.473194 )
shape = SubResource( 1 )

[node name="Fulcrum" parent="." instance=ExtResource( 2 )]
