[gd_scene load_steps=4 format=2]

[ext_resource path="res://dialog/DialogOptionEntry.gd" type="Script" id=1]
[ext_resource path="res://assets/fonts/Patrick_Hand/PatrickHand-Regular.ttf" type="DynamicFontData" id=2]

[sub_resource type="DynamicFont" id=1]
size = 42
outline_color = Color( 0, 0, 0, 1 )
use_mipmaps = true
use_filter = true
font_data = ExtResource( 2 )

[node name="DialogOptionEntry" type="MarginContainer"]
margin_right = 151.0
margin_bottom = 64.0
rect_min_size = Vector2( 0, 64 )
focus_mode = 2
size_flags_horizontal = 3
script = ExtResource( 1 )

[node name="Label" type="Label" parent="."]
margin_top = 3.0
margin_right = 151.0
margin_bottom = 61.0
size_flags_horizontal = 3
custom_fonts/font = SubResource( 1 )
text = "test text"
autowrap = true
[connection signal="focus_entered" from="." to="." method="_on_DialogOptionEntry_focus_entered"]
[connection signal="focus_exited" from="." to="." method="_on_DialogOptionEntry_focus_exited"]
