[gd_scene load_steps=6 format=2]

[ext_resource path="res://assets/gui/quack.png" type="Texture" id=1]
[ext_resource path="res://minigames/squawk/QuackParticles.gd" type="Script" id=2]

[sub_resource type="Gradient" id=1]
offsets = PoolRealArray( 0, 0.72619, 0.996032, 1 )
colors = PoolColorArray( 1, 1, 1, 1, 1, 1, 1, 1, 1, 1, 1, 0.290196, 1, 1, 1, 0 )

[sub_resource type="GradientTexture" id=2]
gradient = SubResource( 1 )

[sub_resource type="ParticlesMaterial" id=3]
emission_shape = 2
emission_box_extents = Vector3( 25, 25, 25 )
flag_disable_z = true
spread = 180.0
gravity = Vector3( 0, 60, 0 )
initial_velocity = 50.0
angular_velocity = -19.87
angular_velocity_random = 1.0
orbit_velocity = 0.0
orbit_velocity_random = 0.0
radial_accel = 23.45
tangential_accel = 9.66
angle = 10.0
angle_random = 1.0
scale = 0.1
color_ramp = SubResource( 2 )

[node name="QuackParticles" type="Particles2D"]
emitting = false
amount = 3
lifetime = 0.8
one_shot = true
explosiveness = 1.0
process_material = SubResource( 3 )
texture = ExtResource( 1 )
script = ExtResource( 2 )
