[gd_scene load_steps=5 format=2]

[ext_resource path="res://characters/goldie/Goldie.gd" type="Script" id=1]
[ext_resource path="res://assets/characters/goldie/Goldie.tscn" type="PackedScene" id=2]

[sub_resource type="BoxShape" id=1]
extents = Vector3( 1.45924, 1, 1.3 )

[sub_resource type="BoxShape" id=2]
extents = Vector3( 0.36654, 1, 0.41693 )

[node name="Goldie" type="Spatial"]
script = ExtResource( 1 )

[node name="Model" parent="." instance=ExtResource( 2 )]

[node name="InteractArea" type="Area" parent="."]
transform = Transform( 1, 0, 0, 0, 1, 0, 0, 0, 1, -0.848909, 0, -0.359578 )

[node name="CollisionShape" type="CollisionShape" parent="InteractArea"]
transform = Transform( 1, 0, 0, 0, 1, 0, 0, 0, 1, -0.1935, 0.995451, 0 )
shape = SubResource( 1 )

[node name="StaticBody" type="StaticBody" parent="."]

[node name="CollisionShape" type="CollisionShape" parent="StaticBody"]
transform = Transform( 1, 0, 0, 0, 1, 0, 0, 0, 1, 0, 1, 0 )
shape = SubResource( 2 )
